Explore, Visualise and Estimate the Global Zoonotic Tuberculosis Burden • EstZoonoticTB
…
Data

The package comes prepackaged with multiple datasets that can then be linked into a single dataset ready for analysis. This linked dataset can be accessed using the following,

EstZoonoticTB::link_data(verbose = FALSE)
#> # A tibble: 15,061 x 26
#>    country country_code g_whoregion  year tb_cases tb_inc tb_inc_lo
#>    <fct>   <fct>        <fct>       <dbl>    <int>  <dbl>     <dbl>
#>  1 Afghan… AFG          Eastern Me…  2000    38000    190       123
#>  2 Afghan… AFG          Eastern Me…  2001    40000    189       123
#>  3 Afghan… AFG          Eastern Me…  2002    42000    189       122
#>  4 Afghan… AFG          Eastern Me…  2003    44000    189       122
#>  5 Afghan… AFG          Eastern Me…  2004    46000    189       122
#>  6 Afghan… AFG          Eastern Me…  2005    47000    189       122
#>  7 Afghan… AFG          Eastern Me…  2006    49000    189       122
#>  8 Afghan… AFG          Eastern Me…  2007    50000    189       122
#>  9 Afghan… AFG          Eastern Me…  2008    52000    189       122
#> 10 Afghan… AFG          Eastern Me…  2009    53000    189       123
#> # … with 15,051 more rows, and 19 more variables: tb_inc_hi <dbl>,
#> #   prop_tb_ep <dbl>, prop_hiv <dbl>, prop_hiv_lo <dbl>,
#> #   prop_hiv_hi <dbl>, z_tb_dom_animal <fct>, z_tb_wild_animal <fct>,
#> #   z_tb_id <int>, z_tb_geo_coverage <fct>, z_tb_study_pop <fct>,
#> #   z_tb_multi_year_study <fct>, tb_z_prop <dbl>, tb_z_prop_lo <dbl>,
#> #   tb_z_prop_hi <dbl>, tb_z_prop_se <dbl>, population <dbl>,
#> #   prop_rural <dbl>, cattle <int>, cattle_per_head <dbl>
…
