…
#> [38] "Togo"                                 
#> [39] "Tokelau"                              
#> [40] "Turks and Caicos Islands"             
#> [41] "Tuvalu"                               
#> [42] "Wallis and Futuna Islands"            
#> [43] "Yemen"
#> Countries with data present for zTB in animals and not TB incidence:
#>  [1] "Ceuta"                          "Chinese Taipei"                
#>  [3] "Falkland Islands (Malvinas)"    "Faroe Islands"                 
#>  [5] "French Guiana"                  "Guadeloupe (France)"           
#>  [7] "Liechtenstein, Principality of" "Martinique"                    
#>  [9] "Mayotte (France)"               "Melilla"                       
#> [11] "Reunion"                        "St. Helena"
#> Joining zTB incidence in humans data and all other TB data
#> # A tibble: 4,148 x 22
#>    country country_code g_whoregion  year tb_cases tb_inc tb_inc_lo
#>    <chr>   <chr>        <chr>       <dbl>    <int>  <dbl>     <dbl>
#>  1 Afghan… AFG          Eastern Me…  2000    38000    190       123
#>  2 Afghan… AFG          Eastern Me…  2001    40000    189       123
#>  3 Afghan… AFG          Eastern Me…  2002    42000    189       122
#>  4 Afghan… AFG          Eastern Me…  2003    44000    189       122
#>  5 Afghan… AFG          Eastern Me…  2004    46000    189       122
#>  6 Afghan… AFG          Eastern Me…  2005    47000    189       122
#>  7 Afghan… AFG          Eastern Me…  2006    49000    189       122
#>  8 Afghan… AFG          Eastern Me…  2007    50000    189       122
#>  9 Afghan… AFG          Eastern Me…  2008    52000    189       122
#> 10 Afghan… AFG          Eastern Me…  2009    53000    189       123
#> # … with 4,138 more rows, and 15 more variables: tb_inc_hi <dbl>,
#> #   prop_tb_ep <dbl>, prop_hiv <dbl>, prop_hiv_lo <dbl>,
#> #   prop_hiv_hi <dbl>, dom <fct>, wild <fct>, z_tb_id <int>,
#> #   z_tb_geo_coverage <fct>, z_tb_study_pop <fct>,
#> #   z_tb_multi_year_study <fct>, prop_tb_z <dbl>, prop_tb_z_lo <dbl>,
#> #   prop_tb_z_hi <dbl>, prop_tb_z_se <dbl>
```
…
