…
*Work in progress*

## Data preparation



* Get all data


```r
all_data <- link_data(verbose = FALSE)

all_data
#> # A tibble: 15,465 x 26
#>    country country_code g_whoregion  year tb_cases tb_inc tb_inc_lo tb_inc_hi
#>    <fct>   <fct>        <fct>       <dbl>    <int>  <dbl>     <dbl>     <dbl>
#>  1 Afghan… AFG          Eastern Me…  2000    39000    190       123       271
#>  2 Afghan… AFG          Eastern Me…  2001    41000    189       123       271
#>  3 Afghan… AFG          Eastern Me…  2002    43000    189       122       270
#>  4 Afghan… AFG          Eastern Me…  2003    45000    189       122       270
#>  5 Afghan… AFG          Eastern Me…  2004    47000    189       122       270
#>  6 Afghan… AFG          Eastern Me…  2005    48000    189       122       270
#>  7 Afghan… AFG          Eastern Me…  2006    50000    189       122       270
#>  8 Afghan… AFG          Eastern Me…  2007    51000    189       122       270
#>  9 Afghan… AFG          Eastern Me…  2008    52000    189       122       270
#> 10 Afghan… AFG          Eastern Me…  2009    54000    189       123       270
#> # … with 15,455 more rows, and 18 more variables: prop_tb_ep <dbl>,
#> #   prop_hiv <dbl>, prop_hiv_lo <dbl>, prop_hiv_hi <dbl>,
#> #   z_tb_dom_animal <fct>, z_tb_wild_animal <fct>, z_tb_id <int>,
#> #   z_tb_geo_coverage <fct>, z_tb_study_pop <fct>, z_tb_multi_year_study <fct>,
#> #   tb_z_prop <dbl>, tb_z_prop_lo <dbl>, tb_z_prop_hi <dbl>,
#> #   tb_z_prop_se <dbl>, population <dbl>, prop_rural <dbl>, cattle <int>,
#> #   cattle_per_head <dbl>
```

* Drop countries with a TB incidence rate of less than 1 in 100,000 or with incidence of less than 100. Restrict dataset to 2000 onwards.


```r
df_with_filt_tb <- all_data %>% 
  dplyr::filter(tb_cases >= 100, tb_inc >= 1) %>% 
  dplyr::filter(year >= 2000)

df_with_filt_tb 
#> # A tibble: 3,256 x 26
#>    country country_code g_whoregion  year tb_cases tb_inc tb_inc_lo tb_inc_hi
#>    <fct>   <fct>        <fct>       <dbl>    <int>  <dbl>     <dbl>     <dbl>
#>  1 Afghan… AFG          Eastern Me…  2000    39000    190       123       271
#>  2 Afghan… AFG          Eastern Me…  2001    41000    189       123       271
#>  3 Afghan… AFG          Eastern Me…  2002    43000    189       122       270
#>  4 Afghan… AFG          Eastern Me…  2003    45000    189       122       270
#>  5 Afghan… AFG          Eastern Me…  2004    47000    189       122       270
#>  6 Afghan… AFG          Eastern Me…  2005    48000    189       122       270
#>  7 Afghan… AFG          Eastern Me…  2006    50000    189       122       270
#>  8 Afghan… AFG          Eastern Me…  2007    51000    189       122       270
#>  9 Afghan… AFG          Eastern Me…  2008    52000    189       122       270
#> 10 Afghan… AFG          Eastern Me…  2009    54000    189       123       270
#> # … with 3,246 more rows, and 18 more variables: prop_tb_ep <dbl>,
#> #   prop_hiv <dbl>, prop_hiv_lo <dbl>, prop_hiv_hi <dbl>,
#> #   z_tb_dom_animal <fct>, z_tb_wild_animal <fct>, z_tb_id <int>,
#> #   z_tb_geo_coverage <fct>, z_tb_study_pop <fct>, z_tb_multi_year_study <fct>,
#> #   tb_z_prop <dbl>, tb_z_prop_lo <dbl>, tb_z_prop_hi <dbl>,
#> #   tb_z_prop_se <dbl>, population <dbl>, prop_rural <dbl>, cattle <int>,
#> #   cattle_per_head <dbl>
```

* Drop data on presence/absence of zoonotic TB in animals. Drop variables not used in further analysis. 


```r
analysis_df <- df_with_filt_tb %>% 
  dplyr::select(-z_tb_dom_animal, -z_tb_wild_animal, 
                -country_code, - tb_cases, -z_tb_id, -z_tb_geo_coverage,
                -z_tb_study_pop, -tb_z_prop_lo, -tb_z_prop_hi,
                -cattle, -z_tb_multi_year_study) %>% 
  dplyr::mutate(id = 1:n())
                
analysis_df
#> # A tibble: 3,256 x 16
#>    country g_whoregion  year tb_inc tb_inc_lo tb_inc_hi prop_tb_ep prop_hiv
#>    <fct>   <fct>       <dbl>  <dbl>     <dbl>     <dbl>      <dbl>    <dbl>
#>  1 Afghan… Eastern Me…  2000    190       123       271     0.0415  0.00321
#>  2 Afghan… Eastern Me…  2001    189       123       271     0.0622  0.00344
#>  3 Afghan… Eastern Me…  2002    189       122       270     0.0769  0.00217
#>  4 Afghan… Eastern Me…  2003    189       122       270     0.0723  0.00259
#>  5 Afghan… Eastern Me…  2004    189       122       270     0.0809  0.00280
#>  6 Afghan… Eastern Me…  2005    189       122       270     0.103   0.00307
#>  7 Afghan… Eastern Me…  2006    189       122       270     0.101   0.00323
#>  8 Afghan… Eastern Me…  2007    189       122       270     0.122   0.00397
#>  9 Afghan… Eastern Me…  2008    189       122       270     0.118   0.00386
#> 10 Afghan… Eastern Me…  2009    189       123       270     0.106   0.00413
#> # … with 3,246 more rows, and 8 more variables: prop_hiv_lo <dbl>,
#> #   prop_hiv_hi <dbl>, tb_z_prop <dbl>, tb_z_prop_se <dbl>, population <dbl>,
#> #   prop_rural <dbl>, cattle_per_head <dbl>, id <int>
```
…
bootstrapped_df_all
#> # A tibble: 3,256 x 12
#>    tb_z_prop population    id country g_whoregion  year tb_inc prop_tb_ep
#>        <dbl>      <dbl> <int> <fct>   <fct>       <dbl>  <dbl>      <dbl>
#>  1        NA   20093756     1 Afghan… Eastern Me…  2000    190     0.0415
#>  2        NA   20966463     2 Afghan… Eastern Me…  2001    189     0.0622
#>  3        NA   21979923     3 Afghan… Eastern Me…  2002    189     0.0769
#>  4        NA   23064851     4 Afghan… Eastern Me…  2003    189     0.0723
#>  5        NA   24118979     5 Afghan… Eastern Me…  2004    189     0.0809
#>  6        NA   25070798     6 Afghan… Eastern Me…  2005    189     0.103 
#>  7        NA   25893450     7 Afghan… Eastern Me…  2006    189     0.101 
#>  8        NA   26616792     8 Afghan… Eastern Me…  2007    189     0.122 
#>  9        NA   27294031     9 Afghan… Eastern Me…  2008    189     0.118 
#> 10        NA   28004331    10 Afghan… Eastern Me…  2009    189     0.106 
#> # … with 3,246 more rows, and 4 more variables: prop_hiv <dbl>,
#> #   prop_rural <dbl>, cattle_per_head <dbl>, sample <dbl>
```



* Filter down to just countries with data on zoonotic TB presence from 2000 onwards.


```r
bootstrapped_df <- bootstrapped_df_all %>% 
  tidyr::drop_na(tb_z_prop)

bootstrapped_df
#> # A tibble: 130 x 12
#>    tb_z_prop population    id country g_whoregion  year tb_inc prop_tb_ep
#>        <dbl>      <dbl> <int> <fct>   <fct>       <dbl>  <dbl>      <dbl>
#>  1   0.0246    37057452    77 Argent… Americas     2000   37        0.127
#>  2   0.0124    38309379    80 Argent… Americas     2003   33        0.151
#>  3   0.00001   38309379    81 Argent… Americas     2003   33        0.151
#>  4   0.0121    38309379    82 Argent… Americas     2003   33        0.151
#>  5   0.0354    39145488    84 Argent… Americas     2005   31        0.130
#>  6   0.00340   39145488    85 Argent… Americas     2005   31        0.130
#>  7   0.00288   39558890    86 Argent… Americas     2006   28        0.115
#>  8   0.0102    39558890    87 Argent… Americas     2006   28        0.115
#>  9   0.00261   19065837   119 Austra… Western Pa…  2000    6.3      0.308
#> 10   0.00130   19268533   120 Austra… Western Pa…  2001    5.9      0.338
#> # … with 120 more rows, and 4 more variables: prop_hiv <dbl>, prop_rural <dbl>,
#> #   cattle_per_head <dbl>, sample <dbl>
```
…
