…
all_data
#> # A tibble: 15,465 x 26
#>    country country_code g_whoregion  year tb_cases tb_inc tb_inc_lo tb_inc_hi
#>    <fct>   <fct>        <fct>       <dbl>    <int>  <dbl>     <dbl>     <dbl>
#>  1 Afghan… AFG          Eastern Me…  2000    39000    190       123       271
#>  2 Afghan… AFG          Eastern Me…  2001    41000    189       123       271
#>  3 Afghan… AFG          Eastern Me…  2002    43000    189       122       270
#>  4 Afghan… AFG          Eastern Me…  2003    45000    189       122       270
#>  5 Afghan… AFG          Eastern Me…  2004    47000    189       122       270
#>  6 Afghan… AFG          Eastern Me…  2005    48000    189       122       270
#>  7 Afghan… AFG          Eastern Me…  2006    50000    189       122       270
#>  8 Afghan… AFG          Eastern Me…  2007    51000    189       122       270
#>  9 Afghan… AFG          Eastern Me…  2008    52000    189       122       270
#> 10 Afghan… AFG          Eastern Me…  2009    54000    189       123       270
#> # … with 15,455 more rows, and 18 more variables: prop_tb_ep <dbl>,
#> #   prop_hiv <dbl>, prop_hiv_lo <dbl>, prop_hiv_hi <dbl>,
#> #   z_tb_dom_animal <fct>, z_tb_wild_animal <fct>, z_tb_id <int>,
#> #   z_tb_geo_coverage <fct>, z_tb_study_pop <fct>, z_tb_multi_year_study <fct>,
#> #   tb_z_prop <dbl>, tb_z_prop_lo <dbl>, tb_z_prop_hi <dbl>,
#> #   tb_z_prop_se <dbl>, population <dbl>, prop_rural <dbl>, cattle <int>,
#> #   cattle_per_head <dbl>
```
…
### Data


```r
latest_data <- EstZoonoticTB::get_latest_combined_data(all_data)

latest_data
#> # A tibble: 244 x 30
#>    country country_code g_whoregion tb_year tb_cases tb_inc tb_inc_lo tb_inc_hi
#>    <chr>   <fct>        <fct>         <dbl>    <int>  <dbl>     <dbl>     <dbl>
#>  1 Afghan… AFG          Eastern Me…    2018    70000    189     122       270  
#>  2 Albania ALB          Europe         2018      510     18      15        20  
#>  3 Algeria DZA          Africa         2018    29000     69      53        88  
#>  4 Americ… ASM          Western Pa…    2018        0      0       0         0  
#>  5 Andorra AND          Europe         2018        2      3       2.6       3.5
#>  6 Angola  AGO          Africa         2018   109000    355     230       507  
#>  7 Anguil… AIA          Americas       2018        3     22      14        31  
#>  8 Antigu… ATG          Americas       2018        6      6       5.1       6.9
#>  9 Argent… ARG          Americas       2018    12000     27      23        31  
#> 10 Armenia ARM          Europe         2018      920     31      24        39  
#> # … with 234 more rows, and 22 more variables: prop_tb_ep <dbl>,
#> #   prop_hiv <dbl>, prop_hiv_lo <dbl>, prop_hiv_hi <dbl>, z_tb_year <dbl>,
#> #   z_tb_id <int>, z_tb_geo_coverage <fct>, z_tb_study_pop <fct>,
#> #   z_tb_multi_year_study <fct>, tb_z_prop <dbl>, tb_z_prop_lo <dbl>,
#> #   tb_z_prop_hi <dbl>, tb_z_prop_se <dbl>, z_tb_animal_year <dbl>,
#> #   z_tb_dom_animal <fct>, z_tb_wild_animal <fct>, demo_year <dbl>,
#> #   population <dbl>, prop_rural <dbl>, animal_year <dbl>, cattle <int>,
#> #   cattle_per_head <dbl>
```
