Data sources • EstZoonoticTB
…
Sourced from the WHO using {getTBinR}.

Extracted TB incidence, TB incidence rates (+ CI’s), and proportion HIV positive (+ CI’s).

Data sourced using EstZoonoticTB::tb_data(). See ?EstZoonoticTB::tb_data() for documentation.

Countries are excluded if incidence was below 100 or if incidence rates were below 1.

EstZoonoticTB::tb_data()
#> Downloading data from: https://extranet.who.int/tme/generateCSV.asp?ds=estimates
#> Saving data to: /tmp/RtmpdCMUOk/tb_burden.rds
#> Downloading data from: https://extranet.who.int/tme/generateCSV.asp?ds=mdr_rr_estimates
#> Saving data to: /tmp/RtmpdCMUOk/mdr_tb.rds
#> Joining TB burden data and MDR TB data.
#> # A tibble: 3,094 x 11
#>    country iso3  g_whoregion  year tb_cases tb_inc tb_inc_lo tb_inc_hi
#>    <chr>   <chr> <chr>       <int>    <int>  <dbl>     <dbl>     <dbl>
#>  1 Afghan… AFG   Eastern Me…  2000    38000    190       123       271
#>  2 Afghan… AFG   Eastern Me…  2001    40000    189       123       271
#>  3 Afghan… AFG   Eastern Me…  2002    42000    189       122       270
#>  4 Afghan… AFG   Eastern Me…  2003    44000    189       122       270
#>  5 Afghan… AFG   Eastern Me…  2004    46000    189       122       270
#>  6 Afghan… AFG   Eastern Me…  2005    47000    189       122       270
#>  7 Afghan… AFG   Eastern Me…  2006    49000    189       122       270
#>  8 Afghan… AFG   Eastern Me…  2007    50000    189       122       270
#>  9 Afghan… AFG   Eastern Me…  2008    52000    189       122       270
#> 10 Afghan… AFG   Eastern Me…  2009    53000    189       123       270
#> # … with 3,084 more rows, and 3 more variables: prop_hiv <dbl>,
#> #   prop_hiv_lo <dbl>, prop_hiv_hi <dbl>
…
Source

Demographics

Sourced from the FAO.

Data cleaning can be found in /data-raw/demographics.R.

Population estimates are available by country from 1950 until 2018.

The proportion of each country that is rural is also available.

EstZoonoticTB::demographics
#> # A tibble: 14,867 x 5
#>    country     country_code  year population prop_rural
#>    <fct>              <int> <int>      <dbl>      <dbl>
#>  1 Afghanistan            2  1950    7752118      0.940
#>  2 Afghanistan            2  1951    7839510      0.938
#>  3 Afghanistan            2  1952    7934980      0.936
#>  4 Afghanistan            2  1953    8038596      0.934
#>  5 Afghanistan            2  1954    8150447      0.931
#>  6 Afghanistan            2  1955    8270581      0.929
#>  7 Afghanistan            2  1956    8399030      0.927
#>  8 Afghanistan            2  1957    8535807      0.924
#>  9 Afghanistan            2  1958    8680946      0.921
#> 10 Afghanistan            2  1959    8834445      0.919
#> # … with 14,857 more rows
…
