Data linkage • EstZoonoticTB
…
all_data
#> # A tibble: 15,061 x 26
#>    country country_code g_whoregion  year tb_cases tb_inc tb_inc_lo
#>    <fct>   <fct>        <fct>       <dbl>    <int>  <dbl>     <dbl>
#>  1 Afghan… AFG          Eastern Me…  2000    38000    190       123
#>  2 Afghan… AFG          Eastern Me…  2001    40000    189       123
#>  3 Afghan… AFG          Eastern Me…  2002    42000    189       122
#>  4 Afghan… AFG          Eastern Me…  2003    44000    189       122
#>  5 Afghan… AFG          Eastern Me…  2004    46000    189       122
#>  6 Afghan… AFG          Eastern Me…  2005    47000    189       122
#>  7 Afghan… AFG          Eastern Me…  2006    49000    189       122
#>  8 Afghan… AFG          Eastern Me…  2007    50000    189       122
#>  9 Afghan… AFG          Eastern Me…  2008    52000    189       122
#> 10 Afghan… AFG          Eastern Me…  2009    53000    189       123
#> # … with 15,051 more rows, and 19 more variables: tb_inc_hi <dbl>,
#> #   prop_tb_ep <dbl>, prop_hiv <dbl>, prop_hiv_lo <dbl>,
#> #   prop_hiv_hi <dbl>, z_tb_dom_animal <fct>, z_tb_wild_animal <fct>,
#> #   z_tb_id <int>, z_tb_geo_coverage <fct>, z_tb_study_pop <fct>,
#> #   z_tb_multi_year_study <fct>, tb_z_prop <dbl>, tb_z_prop_lo <dbl>,
#> #   tb_z_prop_hi <dbl>, tb_z_prop_se <dbl>, population <dbl>,
#> #   prop_rural <dbl>, cattle <int>, cattle_per_head <dbl>
…
Data

latest_data <- EstZoonoticTB::get_latest_combined_data(all_data)

latest_data
#> # A tibble: 246 x 30
#>    country country_code g_whoregion tb_year tb_cases tb_inc tb_inc_lo
#>    <chr>   <fct>        <fct>         <dbl>    <int>  <dbl>     <dbl>
#>  1 Afghan… AFG          Eastern Me…    2017    67000  189      122   
#>  2 Albania ALB          Europe         2017      580   20       17   
#>  3 Algeria DZA          Africa         2017    29000   70       53   
#>  4 Americ… ASM          Western Pa…    2017        6   10        8.8 
#>  5 Andorra AND          Europe         2017        1    1.5      1.3 
#>  6 Angola  AGO          Africa         2017   107000  359      232   
#>  7 Anguil… AIA          Americas       2017        3   22       14   
#>  8 Antigu… ATG          Americas       2017        1    1.1      0.96
#>  9 Argent… ARG          Americas       2017    12000   26       23   
#> 10 Armenia ARM          Europe         2017     1100   36       27   
#> # … with 236 more rows, and 23 more variables: tb_inc_hi <dbl>,
#> #   prop_tb_ep <dbl>, prop_hiv <dbl>, prop_hiv_lo <dbl>,
#> #   prop_hiv_hi <dbl>, z_tb_year <dbl>, z_tb_id <int>,
#> #   z_tb_geo_coverage <fct>, z_tb_study_pop <fct>,
#> #   z_tb_multi_year_study <fct>, tb_z_prop <dbl>, tb_z_prop_lo <dbl>,
#> #   tb_z_prop_hi <dbl>, tb_z_prop_se <dbl>, z_tb_animal_year <dbl>,
#> #   z_tb_dom_animal <fct>, z_tb_wild_animal <fct>, demo_year <dbl>,
#> #   population <dbl>, prop_rural <dbl>, animal_year <dbl>, cattle <int>,
#> #   cattle_per_head <dbl>
…
